%YAML 1.1
%TAG !u! tag:unity3d.com,2011:
--- !u!114 &11400000
MonoBehaviour:
  m_ObjectHideFlags: 0
  m_PrefabParentObject: {fileID: 0}
  m_PrefabInternal: {fileID: 0}
  m_GameObject: {fileID: 0}
  m_Enabled: 1
  m_EditorHideFlags: 0
  m_Script: {fileID: 11500000, guid: f5db26fdc0d776f4fbe30406e089adc4, type: 3}
  m_Name: UI Manager
  m_EditorClassIdentifier: 
  cursor: {fileID: 128044, guid: d8b5ac8e364901e449ed123203b04467, type: 2}
  gUI:
  - {fileID: 114000011756646748}
  - {fileID: 114000013877228056}
--- !u!114 &114000011756646748
MonoBehaviour:
  m_ObjectHideFlags: 1
  m_PrefabParentObject: {fileID: 0}
  m_PrefabInternal: {fileID: 0}
  m_GameObject: {fileID: 0}
  m_Enabled: 1
  m_EditorHideFlags: 0
  m_Script: {fileID: 11500000, guid: 88f0bd3ec3c9b764cbb958449caa853c, type: 3}
  m_Name: 
  m_EditorClassIdentifier: 
  name: Inventory
  canvas: {fileID: 22396176, guid: 27f1b8a2d01fa2e4f91e38598fce1622, type: 2}
  enableOnStart: 1
  isOn: 0
  ID: 0
  type: 0
  isEditing: 1
--- !u!114 &114000013877228056
MonoBehaviour:
  m_ObjectHideFlags: 1
  m_PrefabParentObject: {fileID: 0}
  m_PrefabInternal: {fileID: 0}
  m_GameObject: {fileID: 0}
  m_Enabled: 1
  m_EditorHideFlags: 0
  m_Script: {fileID: 11500000, guid: 8da9dfbcdd4a4d643a6381fba4933c39, type: 3}
  m_Name: 
  m_EditorClassIdentifier: 
  name: Speech
  canvas: {fileID: 22396188, guid: c4b366592cfaa9543b05b51195f760a8, type: 2}
  enableOnStart: 0
  isOn: 0
  ID: 1
  type: 1
  isEditing: 0
  parentRect: {fileID: 0}
